<?xml version="1.0" encoding="UTF-8"?>
<!-- Generated by org.testng.reporters.JUnitReportReporter -->
<testsuite hostname="PC-liangxuqing" name="com.xyuan.ngtest.ps.comp.manadministrativesanctiondetail" tests="1" failures="0" timestamp="9 Oct 2017 09:23:17 GMT" time="0.151" errors="1">
  <testcase name="test" time="0.151" classname="com.xyuan.ngtest.ps.comp.manadministrativesanctiondetail">
    <error type="java.lang.AssertionError" message="
Expected: a string containing &quot;{\&quot;sta\&quot;:1,\&quot;data\&quot;:{\&quot;result\&quot;:[{\&quot;compId\&quot;:102216,\&quot;compFullName\&quot;:\&quot;阿拉丁财富资产管理（北京）有限公司\&quot;,\&quot;foundDate\&quot;:\&quot;2011-06-10\&quot;,\&quot;legalRepresentative\&quot;:\&quot;任福英\&quot;,\&quot;addrPro\&quot;:\&quot;北京市\&quot;,\&quot;registerNo\&quot;:\&quot;P1002529\&quot;,\&quot;mainStrategyType\&quot;:\&quot;私募股权、创业投资基金管理人\&quot;},{\&quot;compId\&quot;:122347,\&quot;compFullName\&quot;:\&quot;艾格（天津）股权投资基金管理有限公司\&quot;,\&quot;foundDate\&quot;:\&quot;2010-12-23\&quot;,\&quot;legalRepresentative\&quot;:\&quot;黄德钧\&quot;,\&quot;addrPro\&quot;:\&quot;天津市\&quot;,\&quot;registerNo\&quot;:\&quot;P1001548\&quot;,\&quot;mainStrategyType\&quot;:\&quot;私募股权、创业投资基金管理人\&quot;},{\&quot;compId\&quot;:123996,\&quot;compFullName\&quot;:\&quot;爱晖资产管理（上海）有限公司\&quot;,\&quot;foundDate\&quot;:\&quot;2014-10-28\&quot;,\&quot;legalRepresentative\&quot;:\&quot;滕晌君\&quot;,\&quot;addrPro\&quot;:\&quot;上海市\&quot;,\&quot;registerNo\&quot;:\&quot;P1008117\&quot;,\&quot;mainStrategyType\&quot;:\&quot;私募证券投资基金管理人\&quot;},{\&quot;compId\&quot;:121580,\&quot;compFullName\&quot;:\&quot;瑷睿（天津）投资管理有限公司\&quot;,\&quot;foundDate\&quot;:\&quot;2015-11-27\&quot;,\&quot;legalRepresentative\&quot;:\&quot;高继东\&quot;,\&quot;addrPro\&quot;:\&quot;天津市\&quot;,\&quot;registerNo\&quot;:\&quot;P1060752\&quot;,\&quot;mainStrategyType\&quot;:\&quot;私募股权、创业投资基金管理人\&quot;},{\&quot;compId\&quot;:104193,\&quot;compFullName\&quot;:\&quot;安博投资管理（武汉）有限责任公司\&quot;,\&quot;foundDate\&quot;:\&quot;2015-04-20\&quot;,\&quot;legalRepresentative\&quot;:\&quot;黄晖\&quot;,\&quot;addrPro\&quot;:\&quot;湖北省\&quot;,\&quot;registerNo\&quot;:\&quot;P1015623\&quot;,\&quot;mainStrategyType\&quot;:\&quot;私募证券投资基金管理人\&quot;},{\&quot;compId\&quot;:130796,\&quot;compFullName\&quot;:\&quot;安持投资管理（上海）有限公司\&quot;,\&quot;foundDate\&quot;:\&quot;2015-04-30\&quot;,\&quot;legalRepresentative\&quot;:\&quot;何文意\&quot;,\&quot;addrPro\&quot;:\&quot;上海市\&quot;,\&quot;registerNo\&quot;:\&quot;P1061782\&quot;,\&quot;mainStrategyType\&quot;:\&quot;私募股权、创业投资基金管理人\&quot;},{\&quot;compId\&quot;:122068,\&quot;compFullName\&quot;:\&quot;安赐资产管理有限公司\&quot;,\&quot;foundDate\&quot;:\&quot;2012-03-20\&quot;,\&quot;legalRepresentative\&quot;:\&quot;殷敏\&quot;,\&quot;addrPro\&quot;:\&quot;广东省\&quot;,\&quot;registerNo\&quot;:\&quot;P1024788\&quot;,\&quot;mainStrategyType\&quot;:\&quot;私募股权、创业投资基金管理人\&quot;},{\&quot;compId\&quot;:121376,\&quot;compFullName\&quot;:\&quot;安达资本（深圳）有限公司\&quot;,\&quot;foundDate\&quot;:\&quot;2015-09-21\&quot;,\&quot;legalRepresentative\&quot;:\&quot;刘雪梅\&quot;,\&quot;addrPro\&quot;:\&quot;广东省\&quot;,\&quot;registerNo\&quot;:\&quot;P1027924\&quot;,\&quot;mainStrategyType\&quot;:\&quot;私募股权、创业投资基金管理人\&quot;},{\&quot;compId\&quot;:104736,\&quot;compFullName\&quot;:\&quot;安丰创业投资有限公司\&quot;,\&quot;foundDate\&quot;:\&quot;2008-02-28\&quot;,\&quot;legalRepresentative\&quot;:\&quot;阮志毅\&quot;,\&quot;addrPro\&quot;:\&quot;浙江省\&quot;,\&quot;registerNo\&quot;:\&quot;P1007683\&quot;,\&quot;mainStrategyType\&quot;:\&quot;私募股权、创业投资基金管理人\&quot;},{\&quot;compId\&quot;:127339,\&quot;compFullName\&quot;:\&quot;安宏（北京）资产管理有限公司\&quot;,\&quot;foundDate\&quot;:\&quot;2015-07-14\&quot;,\&quot;legalRepresentative\&quot;:\&quot;陈靖驰\&quot;,\&quot;addrPro\&quot;:\&quot;北京市\&quot;,\&quot;registerNo\&quot;:\&quot;P1032353\&quot;,\&quot;mainStrategyType\&quot;:\&quot;私募股权、创业投资基金管理人\&quot;},{\&quot;compId\&quot;:101905,\&quot;compFullName\&quot;:\&quot;安徽阿尔法资产管理有限公司\&quot;,\&quot;foundDate\&quot;:\&quot;2012-08-16\&quot;,\&quot;legalRepresentative\&quot;:\&quot;马瑞静\&quot;,\&quot;addrPro\&quot;:\&quot;安徽省\&quot;,\&quot;registerNo\&quot;:\&quot;P1002942\&quot;,\&quot;mainStrategyType\&quot;:\&quot;私募证券投资基金管理人\&quot;},{\&quot;compId\&quot;:125278,\&quot;compFullName\&quot;:\&quot;安徽安爵资产管理有限责任公司\&quot;,\&quot;manId\&quot;:482,\&quot;foundDate\&quot;:\&quot;2015-09-16\&quot;,\&quot;legalRepresentative\&quot;:\&quot;刘榕\&quot;,\&quot;addrPro\&quot;:\&quot;安徽省\&quot;,\&quot;registerNo\&quot;:\&quot;P1030382\&quot;,\&quot;mainStrategyType\&quot;:\&quot;私募证券投资基金管理人\&quot;},{\&quot;compId\&quot;:123321,\&quot;compFullName\&quot;:\&quot;安徽安益通股权投资管理有限公司\&quot;,\&quot;foundDate\&quot;:\&quot;2013-04-25\&quot;,\&quot;legalRepresentative\&quot;:\&quot;张牧岗\&quot;,\&quot;addrPro\&quot;:\&quot;安徽省\&quot;,\&quot;registerNo\&quot;:\&quot;P1001843\&quot;,\&quot;mainStrategyType\&quot;:\&quot;私募股权、创业投资基金管理人\&quot;},{\&quot;compId\&quot;:123322,\&quot;compFullName\&quot;:\&quot;安徽安元投资基金管理有限公司\&quot;,\&quot;foundDate\&quot;:\&quot;2015-07-27\&quot;,\&quot;legalRepresentative\&quot;:\&quot;刘振\&quot;,\&quot;addrPro\&quot;:\&quot;安徽省\&quot;,\&quot;registerNo\&quot;:\&quot;P1023390\&quot;,\&quot;mainStrategyType\&quot;:\&quot;私募股权、创业投资基金管理人\&quot;},{\&quot;compId\&quot;:131924,\&quot;compFullName\&quot;:\&quot;安徽北大明德基金管理有限公司\&quot;,\&quot;foundDate\&quot;:\&quot;2017-01-19\&quot;,\&quot;legalRepresentative\&quot;:\&quot;刘欧\&quot;,\&quot;addrPro\&quot;:\&quot;安徽省\&quot;,\&quot;registerNo\&quot;:\&quot;P1062952\&quot;,\&quot;mainStrategyType\&quot;:\&quot;私募股权、创业投资基金管理人\&quot;},{\&quot;compId\&quot;:103263,\&quot;compFullName\&quot;:\&quot;安徽倍力时空投资管理有限公司\&quot;,\&quot;foundDate\&quot;:\&quot;2011-01-18\&quot;,\&quot;legalRepresentative\&quot;:\&quot;张春华\&quot;,\&quot;addrPro\&quot;:\&quot;安徽省\&quot;,\&quot;registerNo\&quot;:\&quot;P1009844\&quot;,\&quot;mainStrategyType\&quot;:\&quot;私募证券投资基金管理人\&quot;},{\&quot;compId\&quot;:128258,\&quot;compFullName\&quot;:\&quot;安徽博韬创投基金管理有限公司\&quot;,\&quot;foundDate\&quot;:\&quot;2010-03-25\&quot;,\&quot;legalRepresentative\&quot;:\&quot;刘曙光\&quot;,\&quot;addrPro\&quot;:\&quot;安徽省\&quot;,\&quot;registerNo\&quot;:\&quot;P1033663\&quot;,\&quot;mainStrategyType\&quot;:\&quot;私募股权、创业投资基金管理人\&quot;},{\&quot;compId\&quot;:106307,\&quot;compFullName\&quot;:\&quot;安徽池州市政汇中小企业金融服务有限公司\&quot;,\&quot;foundDate\&quot;:\&quot;2013-11-14\&quot;,\&quot;legalRepresentative\&quot;:\&quot;孙一杰\&quot;,\&quot;addrPro\&quot;:\&quot;安徽省\&quot;,\&quot;registerNo\&quot;:\&quot;P1007113\&quot;,\&quot;mainStrategyType\&quot;:\&quot;私募股权、创业投资基金管理人\&quot;},{\&quot;compId\&quot;:101895,\&quot;compFullName\&quot;:\&quot;安徽崇盛投资管理有限公司\&quot;,\&quot;foundDate\&quot;:\&quot;2013-10-18\&quot;,\&quot;legalRepresentative\&quot;:\&quot;徐凯\&quot;,\&quot;addrPro\&quot;:\&quot;安徽省\&quot;,\&quot;registerNo\&quot;:\&quot;P1002943\&quot;,\&quot;mainStrategyType\&quot;:\&quot;私募证券投资基金管理人\&quot;},{\&quot;compId\&quot;:132327,\&quot;compFullName\&quot;:\&quot;安徽大佑创业投资有限公司\&quot;,\&quot;foundDate\&quot;:\&quot;2016-08-17\&quot;,\&quot;legalRepresentative\&quot;:\&quot;徐建民\&quot;,\&quot;addrPro\&quot;:\&quot;安徽省\&quot;,\&quot;registerNo\&quot;:\&quot;P1063510\&quot;,\&quot;mainStrategyType\&quot;:\&quot;私募股权、创业投资基金管理人\&quot;}],\&quot;totalCount\&quot;:21459,\&quot;pageNo\&quot;:1,\&quot;pageSize\&quot;:20,\&quot;totalPage\&quot;:1073,\&quot;newCount\&quot;:0},\&quot;msg\&quot;:\&quot;操作成功\&quot;}&quot;
     but: was &quot;{&quot;sta&quot;:1,&quot;data&quot;:[{&quot;id&quot;:1,&quot;createTime&quot;:&quot;2017-09-30 17:15:59.0&quot;,&quot;decisionTime&quot;:&quot;1&quot;,&quot;manId&quot;:1,&quot;website&quot;:&quot;中国证监协会&quot;,&quot;name&quot;:&quot;1&quot;,&quot;docNumber&quot;:&quot;1&quot;,&quot;decisionOrgan&quot;:&quot;1&quot;,&quot;type&quot;:&quot;1&quot;,&quot;isValid&quot;:1}],&quot;msg&quot;:&quot;ok&quot;}&quot;">
      <![CDATA[java.lang.AssertionError: 
Expected: a string containing "{\"sta\":1,\"data\":{\"result\":[{\"compId\":102216,\"compFullName\":\"阿拉丁财富资产管理（北京）有限公司\",\"foundDate\":\"2011-06-10\",\"legalRepresentative\":\"任福英\",\"addrPro\":\"北京市\",\"registerNo\":\"P1002529\",\"mainStrategyType\":\"私募股权、创业投资基金管理人\"},{\"compId\":122347,\"compFullName\":\"艾格（天津）股权投资基金管理有限公司\",\"foundDate\":\"2010-12-23\",\"legalRepresentative\":\"黄德钧\",\"addrPro\":\"天津市\",\"registerNo\":\"P1001548\",\"mainStrategyType\":\"私募股权、创业投资基金管理人\"},{\"compId\":123996,\"compFullName\":\"爱晖资产管理（上海）有限公司\",\"foundDate\":\"2014-10-28\",\"legalRepresentative\":\"滕晌君\",\"addrPro\":\"上海市\",\"registerNo\":\"P1008117\",\"mainStrategyType\":\"私募证券投资基金管理人\"},{\"compId\":121580,\"compFullName\":\"瑷睿（天津）投资管理有限公司\",\"foundDate\":\"2015-11-27\",\"legalRepresentative\":\"高继东\",\"addrPro\":\"天津市\",\"registerNo\":\"P1060752\",\"mainStrategyType\":\"私募股权、创业投资基金管理人\"},{\"compId\":104193,\"compFullName\":\"安博投资管理（武汉）有限责任公司\",\"foundDate\":\"2015-04-20\",\"legalRepresentative\":\"黄晖\",\"addrPro\":\"湖北省\",\"registerNo\":\"P1015623\",\"mainStrategyType\":\"私募证券投资基金管理人\"},{\"compId\":130796,\"compFullName\":\"安持投资管理（上海）有限公司\",\"foundDate\":\"2015-04-30\",\"legalRepresentative\":\"何文意\",\"addrPro\":\"上海市\",\"registerNo\":\"P1061782\",\"mainStrategyType\":\"私募股权、创业投资基金管理人\"},{\"compId\":122068,\"compFullName\":\"安赐资产管理有限公司\",\"foundDate\":\"2012-03-20\",\"legalRepresentative\":\"殷敏\",\"addrPro\":\"广东省\",\"registerNo\":\"P1024788\",\"mainStrategyType\":\"私募股权、创业投资基金管理人\"},{\"compId\":121376,\"compFullName\":\"安达资本（深圳）有限公司\",\"foundDate\":\"2015-09-21\",\"legalRepresentative\":\"刘雪梅\",\"addrPro\":\"广东省\",\"registerNo\":\"P1027924\",\"mainStrategyType\":\"私募股权、创业投资基金管理人\"},{\"compId\":104736,\"compFullName\":\"安丰创业投资有限公司\",\"foundDate\":\"2008-02-28\",\"legalRepresentative\":\"阮志毅\",\"addrPro\":\"浙江省\",\"registerNo\":\"P1007683\",\"mainStrategyType\":\"私募股权、创业投资基金管理人\"},{\"compId\":127339,\"compFullName\":\"安宏（北京）资产管理有限公司\",\"foundDate\":\"2015-07-14\",\"legalRepresentative\":\"陈靖驰\",\"addrPro\":\"北京市\",\"registerNo\":\"P1032353\",\"mainStrategyType\":\"私募股权、创业投资基金管理人\"},{\"compId\":101905,\"compFullName\":\"安徽阿尔法资产管理有限公司\",\"foundDate\":\"2012-08-16\",\"legalRepresentative\":\"马瑞静\",\"addrPro\":\"安徽省\",\"registerNo\":\"P1002942\",\"mainStrategyType\":\"私募证券投资基金管理人\"},{\"compId\":125278,\"compFullName\":\"安徽安爵资产管理有限责任公司\",\"manId\":482,\"foundDate\":\"2015-09-16\",\"legalRepresentative\":\"刘榕\",\"addrPro\":\"安徽省\",\"registerNo\":\"P1030382\",\"mainStrategyType\":\"私募证券投资基金管理人\"},{\"compId\":123321,\"compFullName\":\"安徽安益通股权投资管理有限公司\",\"foundDate\":\"2013-04-25\",\"legalRepresentative\":\"张牧岗\",\"addrPro\":\"安徽省\",\"registerNo\":\"P1001843\",\"mainStrategyType\":\"私募股权、创业投资基金管理人\"},{\"compId\":123322,\"compFullName\":\"安徽安元投资基金管理有限公司\",\"foundDate\":\"2015-07-27\",\"legalRepresentative\":\"刘振\",\"addrPro\":\"安徽省\",\"registerNo\":\"P1023390\",\"mainStrategyType\":\"私募股权、创业投资基金管理人\"},{\"compId\":131924,\"compFullName\":\"安徽北大明德基金管理有限公司\",\"foundDate\":\"2017-01-19\",\"legalRepresentative\":\"刘欧\",\"addrPro\":\"安徽省\",\"registerNo\":\"P1062952\",\"mainStrategyType\":\"私募股权、创业投资基金管理人\"},{\"compId\":103263,\"compFullName\":\"安徽倍力时空投资管理有限公司\",\"foundDate\":\"2011-01-18\",\"legalRepresentative\":\"张春华\",\"addrPro\":\"安徽省\",\"registerNo\":\"P1009844\",\"mainStrategyType\":\"私募证券投资基金管理人\"},{\"compId\":128258,\"compFullName\":\"安徽博韬创投基金管理有限公司\",\"foundDate\":\"2010-03-25\",\"legalRepresentative\":\"刘曙光\",\"addrPro\":\"安徽省\",\"registerNo\":\"P1033663\",\"mainStrategyType\":\"私募股权、创业投资基金管理人\"},{\"compId\":106307,\"compFullName\":\"安徽池州市政汇中小企业金融服务有限公司\",\"foundDate\":\"2013-11-14\",\"legalRepresentative\":\"孙一杰\",\"addrPro\":\"安徽省\",\"registerNo\":\"P1007113\",\"mainStrategyType\":\"私募股权、创业投资基金管理人\"},{\"compId\":101895,\"compFullName\":\"安徽崇盛投资管理有限公司\",\"foundDate\":\"2013-10-18\",\"legalRepresentative\":\"徐凯\",\"addrPro\":\"安徽省\",\"registerNo\":\"P1002943\",\"mainStrategyType\":\"私募证券投资基金管理人\"},{\"compId\":132327,\"compFullName\":\"安徽大佑创业投资有限公司\",\"foundDate\":\"2016-08-17\",\"legalRepresentative\":\"徐建民\",\"addrPro\":\"安徽省\",\"registerNo\":\"P1063510\",\"mainStrategyType\":\"私募股权、创业投资基金管理人\"}],\"totalCount\":21459,\"pageNo\":1,\"pageSize\":20,\"totalPage\":1073,\"newCount\":0},\"msg\":\"操作成功\"}"
     but: was "{"sta":1,"data":[{"id":1,"createTime":"2017-09-30 17:15:59.0","decisionTime":"1","manId":1,"website":"中国证监协会","name":"1","docNumber":"1","decisionOrgan":"1","type":"1","isValid":1}],"msg":"ok"}"
	at org.hamcrest.MatcherAssert.assertThat(MatcherAssert.java:20)
	at org.hamcrest.MatcherAssert.assertThat(MatcherAssert.java:8)
	at com.xyuan.ngtest.MyAssert.MyAssert.asserting(MyAssert.java:12)
	at com.xyuan.ngtest.ps.comp.manadministrativesanctiondetail.test(manadministrativesanctiondetail.java:30)
	at sun.reflect.NativeMethodAccessorImpl.invoke0(Native Method)
	at sun.reflect.NativeMethodAccessorImpl.invoke(NativeMethodAccessorImpl.java:62)
	at sun.reflect.DelegatingMethodAccessorImpl.invoke(DelegatingMethodAccessorImpl.java:43)
	at java.lang.reflect.Method.invoke(Method.java:498)
	at org.testng.internal.MethodInvocationHelper.invokeMethod(MethodInvocationHelper.java:84)
	at org.testng.internal.Invoker.invokeMethod(Invoker.java:714)
	at org.testng.internal.Invoker.invokeTestMethod(Invoker.java:901)
	at org.testng.internal.Invoker.invokeTestMethods(Invoker.java:1231)
	at org.testng.internal.TestMethodWorker.invokeTestMethods(TestMethodWorker.java:127)
	at org.testng.internal.TestMethodWorker.run(TestMethodWorker.java:111)
	at org.testng.TestRunner.privateRun(TestRunner.java:767)
	at org.testng.TestRunner.run(TestRunner.java:617)
	at org.testng.SuiteRunner.runTest(SuiteRunner.java:335)
	at org.testng.SuiteRunner.access$000(SuiteRunner.java:37)
	at org.testng.SuiteRunner$SuiteWorker.run(SuiteRunner.java:369)
	at org.testng.internal.thread.ThreadUtil$2.call(ThreadUtil.java:64)
	at java.util.concurrent.FutureTask.run(FutureTask.java:266)
	at java.util.concurrent.ThreadPoolExecutor.runWorker(ThreadPoolExecutor.java:1142)
	at java.util.concurrent.ThreadPoolExecutor$Worker.run(ThreadPoolExecutor.java:617)
	at java.lang.Thread.run(Thread.java:745)
]]>
    </error>
  </testcase> <!-- test -->
</testsuite> <!-- com.xyuan.ngtest.ps.comp.manadministrativesanctiondetail -->
