<?xml version="1.0" encoding="UTF-8"?>
<TestSuite>
	<method name="comp_search">
		<TestCase name='single_conds'>"compFullName":"北京和通天下投资管理有限公司","foundDate":"2016-09-30","legalRepresentative":"郑益民","addrPro":"北京市","registerNo":"P1063646","mainStrategyType":"私募证券投资基金管理人"}</TestCase>
		<TestCase name='multi_conds'>"compFullName":"北京和通天下投资管理有限公司","foundDate":"2016-09-30","legalRepresentative":"郑益民","addrPro":"北京市","registerNo":"P1063646","mainStrategyType":"私募证券投资基金管理人"}</TestCase>		
		<TestCase name='no_result'>"msg":"暂无相关数据"}</TestCase>		
		<TestCase name='no_conds'>"compFullName":"阿拉丁财富资产管理（北京）有限公司","foundDate":"2011-06-10","legalRepresentative":"任福英","addrPro":"北京市","registerNo":"P1002529","mainStrategyType":"私募股权、创业投资基金管理人"}</TestCase>
		<TestCase name='date_conds'>"compFullName":"安徽北大明德基金管理有限公司","foundDate":"2017-01-19","legalRepresentative":"刘欧","addrPro":"安徽省","registerNo":"P1062952","mainStrategyType":"私募股权、创业投资基金管理人"}</TestCase>
		<TestCase name='number_conds'>"compFullName":"安达资本（深圳）有限公司","foundDate":"2015-09-21","legalRepresentative":"刘雪梅","addrPro":"广东省","registerNo":"P1027924","mainStrategyType":"私募股权、创业投资基金管理人"}</TestCase>
	</method>	
	<method name="login">
		<TestCase name='login'>{"sta":1,"data":{"username":"liangxuqing","realname":"梁旭清"},"msg":"操作成功！"}</TestCase>
	</method>	
	<method name="all_search">
		<TestCase name='allsearch'>"menuType":"comp"</TestCase>
		<TestCase name='conditionsearch'>"menuType":"comp"</TestCase>
	</method>	
	<method name="dimenum">
		<TestCase name='cityenum'>{"sta":1,"data":[{"code":"北京市","vValue":"北京市"},{"code":"天津市","vValue":"天津市"},{"code":"河北省","vValue":"河北省"},{"code":"山西省","vValue":"山西省"},{"code":"内蒙古自治区","vValue":"内蒙古自治区"},{"code":"辽宁省","vValue":"辽宁省"},{"code":"吉林省","vValue":"吉林省"},{"code":"黑龙江省","vValue":"黑龙江省"},{"code":"上海市","vValue":"上海市"},{"code":"江苏省","vValue":"江苏省"},{"code":"浙江省","vValue":"浙江省"},{"code":"安徽省","vValue":"安徽省"},{"code":"福建省","vValue":"福建省"},{"code":"江西省","vValue":"江西省"},{"code":"山东省","vValue":"山东省"},{"code":"河南省","vValue":"河南省"},{"code":"湖北省","vValue":"湖北省"},{"code":"湖南省","vValue":"湖南省"},{"code":"广东省","vValue":"广东省"},{"code":"广西壮族自治区","vValue":"广西壮族自治区"},{"code":"海南省","vValue":"海南省"},{"code":"重庆市","vValue":"重庆市"},{"code":"四川省","vValue":"四川省"},{"code":"贵州省","vValue":"贵州省"},{"code":"云南省","vValue":"云南省"},{"code":"西藏自治区","vValue":"西藏自治区"},{"code":"陕西省","vValue":"陕西省"},{"code":"甘肃省","vValue":"甘肃省"},{"code":"青海省","vValue":"青海省"},{"code":"宁夏回族自治区","vValue":"宁夏回族自治区"},{"code":"新疆维吾尔自治区","vValue":"新疆维吾尔自治区"}],"msg":"ok"}</TestCase>
	</method>	
	<method name="comp_tree">
		<TestCase name='search'>{"sta":1,"data":[{"id":1,"parentId":0,"dataType":"s","isLeaf":0,"isEnum":0,"menuType":"c","menuLevel":1,"menuName":"公司基本信息"},{"id":2,"parentId":1,"dataType":"s","isLeaf":1,"isEnum":0,"menuType":"c","menuLevel":2,"menuName":"公司全称"},{"id":3,"parentId":1,"dataType":"s","isLeaf":1,"isEnum":0,"menuType":"c","menuLevel":2,"menuName":"公司简称"},{"id":4,"parentId":1,"dataType":"s","isLeaf":1,"isEnum":0,"menuType":"c","menuLevel":2,"menuName":"公司英文名"},{"id":5,"parentId":1,"dataType":"s","isLeaf":1,"isEnum":1,"menuType":"c","menuLevel":2,"menuName":"注册地"},{"id":6,"parentId":1,"dataType":"d","isLeaf":1,"isEnum":0,"menuType":"c","menuLevel":2,"menuName":"成立日期"},{"id":7,"parentId":1,"dataType":"s","isLeaf":1,"isEnum":0,"menuType":"c","menuLevel":2,"menuName":"基金策略类型"},{"id":8,"parentId":1,"dataType":"s","isLeaf":1,"isEnum":1,"menuType":"c","menuLevel":2,"menuName":"经营状态"},{"id":9,"parentId":1,"dataType":"s","isLeaf":1,"isEnum":0,"menuType":"c","menuLevel":2,"menuName":"法定代表人"},{"id":10,"parentId":1,"dataType":"s","isLeaf":1,"isEnum":0,"menuType":"c","menuLevel":2,"menuName":"统一社会信用代码"},{"id":11,"parentId":1,"dataType":"s","isLeaf":1,"isEnum":0,"menuType":"c","menuLevel":2,"menuName":"组织机构代码"},{"id":12,"parentId":1,"unit":"万元人民币","dataType":"i","isLeaf":1,"isEnum":0,"menuType":"c","menuLevel":2,"menuName":"注册资本"},{"id":13,"parentId":0,"dataType":"s","isLeaf":0,"isEnum":0,"menuType":"c","menuLevel":1,"menuName":"基金业协会"},{"id":14,"parentId":13,"dataType":"d","isLeaf":1,"isEnum":0,"menuType":"c","menuLevel":2,"menuName":"登记日期"},{"id":15,"parentId":13,"dataType":"s","isLeaf":1,"isEnum":0,"menuType":"c","menuLevel":2,"menuName":"登记编号"},{"id":16,"parentId":13,"dataType":"d","isLeaf":1,"isEnum":0,"menuType":"c","menuLevel":2,"menuName":"入会日期"},{"id":17,"parentId":13,"dataType":"s","isLeaf":1,"isEnum":1,"menuType":"c","menuLevel":2,"menuName":"会员类型"},{"id":18,"parentId":0,"dataType":"s","isLeaf":0,"isEnum":0,"menuType":"c","menuLevel":1,"menuName":"团队"},{"id":19,"parentId":18,"dataType":"i","isLeaf":1,"isEnum":0,"menuType":"c","menuLevel":2,"menuName":"当前员工人数"},{"id":20,"parentId":18,"dataType":"s","isLeaf":0,"isEnum":0,"menuType":"c","menuLevel":2,"menuName":"在职员工"},{"id":21,"parentId":20,"dataType":"s","isLeaf":1,"isEnum":0,"menuType":"c","menuLevel":3,"menuName":"姓名"},{"id":22,"parentId":20,"dataType":"s","isLeaf":1,"isEnum":0,"menuType":"c","menuLevel":3,"menuName":"职位"},{"id":23,"parentId":20,"dataType":"s","isLeaf":1,"isEnum":1,"menuType":"c","menuLevel":3,"menuName":"学历"},{"id":24,"parentId":18,"dataType":"s","isLeaf":0,"isEnum":0,"menuType":"c","menuLevel":2,"menuName":"离职员工"},{"id":25,"parentId":24,"dataType":"s","isLeaf":1,"isEnum":0,"menuType":"c","menuLevel":3,"menuName":"姓名"},{"id":26,"parentId":24,"dataType":"s","isLeaf":1,"isEnum":0,"menuType":"c","menuLevel":3,"menuName":"职位"},{"id":27,"parentId":24,"dataType":"s","isLeaf":1,"isEnum":1,"menuType":"c","menuLevel":3,"menuName":"学历"},{"id":28,"parentId":0,"dataType":"s","isLeaf":0,"isEnum":0,"menuType":"c","menuLevel":1,"menuName":"产品"},{"id":29,"parentId":28,"dataType":"s","isLeaf":1,"isEnum":0,"menuType":"c","menuLevel":2,"menuName":"基金名称"},{"id":30,"parentId":28,"dataType":"s","isLeaf":1,"isEnum":0,"menuType":"c","menuLevel":2,"menuName":"基金编号"},{"id":31,"parentId":28,"dataType":"d","isLeaf":1,"isEnum":0,"menuType":"c","menuLevel":2,"menuName":"成立日期"},{"id":32,"parentId":28,"dataType":"s","isLeaf":1,"isEnum":1,"menuType":"c","menuLevel":2,"menuName":"基金类型"},{"id":33,"parentId":28,"dataType":"s","isLeaf":1,"isEnum":1,"menuType":"c","menuLevel":2,"menuName":"运作状态"},{"id":34,"parentId":0,"dataType":"s","isLeaf":0,"isEnum":0,"menuType":"c","menuLevel":1,"menuName":"调研"},{"id":35,"parentId":34,"dataType":"d","isLeaf":1,"isEnum":0,"menuType":"c","menuLevel":2,"menuName":"调研日期"},{"id":36,"parentId":34,"dataType":"s","isLeaf":1,"isEnum":0,"menuType":"c","menuLevel":2,"menuName":"调研股票代码"},{"id":37,"parentId":34,"dataType":"s","isLeaf":1,"isEnum":0,"menuType":"c","menuLevel":2,"menuName":"调研股票简称"},{"id":38,"parentId":34,"dataType":"s","isLeaf":1,"isEnum":1,"menuType":"c","menuLevel":2,"menuName":"调研公司行业"},{"id":39,"parentId":34,"dataType":"s","isLeaf":1,"isEnum":0,"menuType":"c","menuLevel":2,"menuName":"研究员"}],"msg":"操作成功"}</TestCase>
	</method>	
	<method name="comp_baseinfo">
		<TestCase name='search'>"addrReg":"广东省深圳市前海深港合作区前湾一路1号A栋201室","addrOff":"广东省深圳市福田区福田区金田路与福华路交汇处现代商务大厦2710","mainStrategyType":"私募股权、创业投资基金管理人"</TestCase>
	</method>
	<method name="comp_descinfo">
		<TestCase name='search'>"compDesc":"上海艾方资产管理有限公司成立于2012年3月，是一家业内知名的对冲基金管理机构，团队成员具有丰富的华尔街投资经验和长期的中国市场对冲套利实践。目前艾方资产管理多只量化对冲基金，2014年艾方多策略对冲套利1期以56%的收益率和不超过1.5%的最大回撤，名列相对价值类对冲基金前茅。公司于2014年6月获得了中国证券基金业协会备案审批的私募基金管理人资格。艾方资产专注于中国境内市场的量化投资和套利交易，为客户提供优秀的绝对收益投资产品。"},"msg":"操作成功"}</TestCase>
	</method>		
	<method name="comp_assoinfo">
		<TestCase name='search'>"memberType":"观察会员","registerNo":"P1001108"</TestCase>
	</method>	
	<method name="comp_corepeople">
		<TestCase name='search'>"position":"投资总监,总裁","resume":"蒋锴是美国塔夫茨大学计算机科学硕士，南京大学计算机科学学士。接受过人民日报和中央电视台等多家媒体专访。曾在权威学术刊物上发表过两篇人工智能领域的论文，出版了3本计算机技术领域的专著。具有11年对冲基金投资经验及多年投资团队管理经验，先后任职于东方证券先后担任证券投资业务总部副总经理，金融衍生品业务总部董事总经理，组建了东方证券的另类投资业务，负责包括套利交易、对冲交易、数量化策略在内的绝对收益自营投资，并担任东方证券自营投资决策委员会委员。在此之前，蒋锴在华尔街从事了多年的绝对收益投资，先后在韦氏资产管理公司和德意志银行纽约自营部担任投资经理，管理的资产总额达10亿美金，涉及全球多个主要证券市场。他管理的投资组合2005年至今每年均取得了稳定的正收益。2012年3月，创建成立上海艾方资产管理有限公司，任总裁兼投资总监，带领团队取得了优秀的成绩。","manId":3825,"name":"蒋锴"</TestCase>
	</method>	
	<method name="comp_prizeinfo">
		<TestCase name='search'>"organization":"每日经济新闻","prizeYear":"2015","prizeName":"2015中国十佳私募基金"}],"totalCount":1,"pageNo":1,"pageSize":5,"totalPage":1},"msg":"操作成功"}</TestCase>
	</method>		
	<method name="comp_fundinfo">
		<TestCase name='search'>"foundationDate":"2016-11-02","fundType":"私募证券投资基金管理人","fundName":"信一市值宝1号稳赢成长"}</TestCase>
	</method>	
	<method name="comp_askcontext">
		<TestCase name='search'>{"sta":1,"data":{"result":[{"ticker":"300083","manNames":"徐贞武","stockName":"劲胜智能","compName":"上海从容投资管理有限公司","askDt":"2017-07-05","industry":"电子","surveyDt":"2017-07-05"},{"ticker":"300336","stockName":"新文化","compName":"从容投资","askDt":"2017-06-13","industry":"传媒","surveyDt":"2017-06-13"},{"ticker":"002718","manNames":"刘翔宇","stockName":"友邦吊顶","compName":"从容投资","askDt":"2017-05-09","industry":"建筑材料","surveyDt":"2017-05-09"},{"ticker":"002833","manNames":"刘羊杰","stockName":"弘亚数控","compName":"从容投资","askDt":"2017-04-28","industry":"机械设备","surveyDt":"2017-04-28"},{"ticker":"300503","manNames":"刘翔宇","stockName":"昊志机电","compName":"从容投资","askDt":"2017-04-28","industry":"机械设备","surveyDt":"2017-04-28"}],"totalCount":170,"pageNo":1,"pageSize":5,"totalPage":34},"msg":"操作成功"}</TestCase>
	</method>
	<method name="comp_askcontextdetail">
		<TestCase name='search'>{"sta":1,"data":{"result":[{"answerContent":"通过自主创新和行业整合，公司在打印复印耗材产业中形成了全产业链格局，已取得了较好的经营业绩，下一步挖掘价值的途径将是向渠道和终端不断渗透。国内终端打印市场空间巨大，现有商业模式需要全面升级和增加互联网功能，公司能通过破除垄断的耗材供应优势，实现由耗材生产商向打印复印服务品牌渠道商迈进，完成由产品经济向服务经济的转变。","ticker":"300054","manNames":"张亚锋","stockName":"鼎龙股份","questionContent":"年报内容及整体业务","compName":"混沌道然","askDt":"2015-03-18","industry":"化工","surveyDt":"2015-03-18"},{"answerContent":"彩粉按适配性分为打印粉和复印粉，两者市场份额各占一半。打印粉用于桌面型打印机，目前受电子化影响和设备向大型化转变，打印粉增长空间受限。复印粉技术难度高，市场供应缺乏，其价格及附加值较高，为蓝海市场。公司复印粉去年末推入市场后得到下游用户的高度认可，今年将进入快速成长阶段。值得一提的是复印粉中生产类型的快印粉快速发展，快印粉为过去突视的高含金量市场，现在正重视该类市场。为缓解品种切换压力和复印粉需求增长带来的彩粉供应不足，公司的彩粉二期项目正在建设之中，预计可以如期完工。","ticker":"300054","manNames":"张亚锋","stockName":"鼎龙股份","questionContent":"彩粉业务情况","compName":"混沌道然","askDt":"2015-03-18","industry":"化工","surveyDt":"2015-03-18"},{"answerContent":"本次投资5千元万设立的视觉传播项目通过全资子公司来进行，计划对快印业务的传统商业模式进行创新设计。增强互联网和线下连锁功能，采用O2O重构其商业型态，此会提升快印业的整体盈利水平，也能实现股份公司在互联网业务、文化消费领域中的产业布局。图文快印店在国内为高度分散，但市场容量巨大的市场。国内有超过三万家快印店，但区域性或全国性的连锁店并未形成，更缺乏有效的互联网经营模式。公司推出的快印粉实现了国产替代，受到下游客户高度认可。公司能以行业上游核心耗材的供应商的较好身份，助力推动行业整合发展，希望快印业能实现一些创新探索。首先，公司希望对线下一部分优质快印资源，采用品牌连锁加盟形式进行整合，其次是采用互联网方式为连锁加盟店提供导入服务，增加快印店客户流量，提升盈利能力。公司希望通过连锁店的产品标准化和供应链优化，提升快印店的综合竞争能力，最终形成具有统一快印品牌的、服务客户快捷的全国性的快印服务平台。","ticker":"300054","manNames":"张亚锋","stockName":"鼎龙股份","questionContent":"视觉传播项目介绍","compName":"混沌道然","askDt":"2015-03-18","industry":"化工","surveyDt":"2015-03-18"},{"answerContent":"集成电路芯片抛光垫几乎都由欧美和日本企业所垄断，国内尚无一家企业或科研单位真正掌握该产品的核心技术和工业化生产能力。公司在2013年起立项CMP垫产品的研究开发，目前已经建立专项实验室和组建具有海外专家背景的CMP项目研发团队。CMP规模化生产的工艺装备正在推进，目前研发人员较多与国外厂商就选型和产品定制技术进行沟通。但因本项目的工程化程度很高，时间进度存在一定的不确定性，公司会努力加快建设进度力争早日投产。CMP抛光垫是由树脂到聚氨酯的材料演变，它除了能为公司带来新的业绩增长点，更为公司带来了以较好身份进入的半导体行业的机会，赋予了公司可行性延展的空间。公司通过产品及应用行业的跨越，逐步靠近全球卓越化学新材料供应商这一远景梦想。","ticker":"300054","manNames":"张亚锋","stockName":"鼎龙股份","questionContent":"CMP项目介绍","compName":"混沌道然","askDt":"2015-03-18","industry":"化工","surveyDt":"2015-03-18"}],"totalCount":4,"pageNo":1,"pageSize":5,"totalPage":1},"msg":"操作成功"}</TestCase>
	</method>
	<method name="comp_newsinfo">
		<TestCase name='search'>{"sta":1,"data":{"result":[{"id":43851,"author":"吴君","title":"又一家外资巨头拿下私募牌照 富达瑞银相继杀入中国","publishTime":"2017-07-15","src":"中国基金报"</TestCase>
	</method>
	<method name="comp_investabroad">
		<TestCase name='search'>{"sta":1,"data":{"result":[{"id":1,"objLegalRepresentative":"北京泰发睿安投资管理有限公司","compId":122304,"objCompName":"嘉兴朗禄投资合伙企业（有限合伙）","objOfficeAddr":"浙江省嘉兴市南湖区竹园路100号东方大厦111室-173","objOperationState":"存续","objEstablishTime":"2017-02-24","objRigisterCapital":"-"},{"id":2,"objLegalRepresentative":"北京泰发睿安投资管理有限公司","compId":122304,"objCompName":"嘉兴煊吉投资合伙企业（有限合伙）","objOfficeAddr":"浙江省嘉兴市南湖区竹园路100号东方大厦111室-169","objOperationState":"存续","objEstablishTime":"2017-02-22","objRigisterCapital":"-"},{"id":3,"objLegalRepresentative":"北京泰发睿安投资管理有限公司","compId":122304,"objCompName":"嘉兴皓吉投资合伙企业（有限合伙）","objOfficeAddr":"浙江省嘉兴市南湖区竹园路100号东方大厦111室-158","objOperationState":"存续","objEstablishTime":"2017-02-22","objRigisterCapital":"-"},{"id":4,"objLegalRepresentative":"北京泰发睿安投资管理有限公司","compId":122304,"objCompName":"嘉兴皓进投资合伙企业（有限合伙）","objOfficeAddr":"浙江省嘉兴市南湖区竹园路100号东方大厦111室-157","objOperationState":"存续","objEstablishTime":"2017-02-22","objRigisterCapital":"-"},{"id":5,"objLegalRepresentative":"北京泰发睿安投资管理有限公司","compId":122304,"objCompName":"嘉兴朗康投资合伙企业（有限合伙）","objOfficeAddr":"浙江省嘉兴市南湖区竹园路100号东方大厦111室-179","objOperationState":"存续","objEstablishTime":"2017-02-22","objRigisterCapital":"-"}],"totalCount":134,"pageNo":1,"pageSize":5,"totalPage":27},"msg":"操作成功"}</TestCase>
	</method>
	<method name="comp_buss_bsinfo">
		<TestCase name='search'>"operatingPeriod":"2007-04-13 至 2027-04-12","registrationAuthority":"浦东新区市场监管局","registerCapital":"7700万人民币","organizationCode":"66076942-1","id":52,"compType":"有限责任公司（自然人投资或控股）","operationState":"存续（在营、开业、在册）","establishTime":"2007-04-13","creditCode":"91310115660769421N","industry":"租赁和商务服务业","registerNumber":"310115001006875","legalRepresentative":"王歆","registerAddr":"上海市浦东新区五星路706弄22号"},"msg":"操作成功"}</TestCase>
	</method>
	<method name="comp_buss_shareholderinfo">
		<TestCase name='search'>{"sta":1,"data":{"result":[{"id":1,"compId":99265,"shareholderName":"上海混沌投资（集团)有限公司","shareholderType":"企业法人","shareholdingRatio":"54.5455%","contribution":"4200.000000万元人民币","weightOrder":1,"contributionTime":"-"},{"id":2,"compId":99265,"shareholderName":"葛卫东","manId":3778,"shareholderType":"自然人股东","shareholdingRatio":"40.2597%","contribution":"3100.000000万元人民币","weightOrder":1,"contributionTime":"-"},{"id":3,"compId":99265,"shareholderName":"王歆","manId":3199,"shareholderType":"自然人股东","shareholdingRatio":"3.8961%","contribution":"300.000000万元人民币","weightOrder":1,"contributionTime":"-"},{"id":4,"compId":99265,"shareholderName":"葛贵兰","shareholderType":"自然人股东","shareholdingRatio":"1.2987%","contribution":"100.000000万元人民币","weightOrder":1,"contributionTime":"-"}],"totalCount":4,"pageNo":1,"pageSize":5,"totalPage":1},"msg":"操作成功"}</TestCase>
	</method>	
	<method name="comp_buss_changehis">
		<TestCase name='search'>{"sta":1,"data":{"result":[{"id":51598,"compId":99265,"changeDate":"2017-07-07","afterChange":"上海 市 浦东 新区五星路706弄 22号","changeContent":"住所变更","beforeChange":"中国( 上海 )自由贸易试验区 浦东 大道2123号3层31 0 5室"},{"id":51601,"compId":99265,"changeDate":"2017-07-07","afterChange":"201 7 - 06- 1 6 章程 修正 案","changeContent":"章程修正案备案","beforeChange":"201 6 - 12-1 0章程 备 案"},{"id":51602,"compId":99265,"changeDate":"2017-02-23","afterChange":"2016- 12-1 0章程 修正 案","changeContent":"章程修正案备案","beforeChange":"2016- 09 -0 8 章程 备 案"},{"id":51603,"compId":99265,"changeDate":"2017-02-23","afterChange":"2016- 12-1 0章程 修正 案","changeContent":"章程修正案备案","beforeChange":"2016- 09 -0 8 章程 备 案"},{"id":51605,"compId":99265,"changeDate":"2017-02-23","afterChange":"葛贵兰","changeContent":"监事备案","beforeChange":"杨健晖"}],"totalCount":13,"pageNo":1,"pageSize":5,"totalPage":3},"msg":"操作成功"}</TestCase>
	</method>	
	<method name="comp_run_taxinfo">
		<TestCase name='search'>{"sta":1,"data":{"result":[{"creditRating":"A","id":179,"compId":99577,"taxpayerCode":"610090220530273","overduTaxBalan":"-","overduTax":"-","reportYear":"2016","payTaxs":"-","evaluationOrg":"国家税务总局"},{"creditRating":"A","id":180,"compId":99577,"taxpayerCode":"610090220530273","overduTaxBalan":"-","overduTax":"-","reportYear":"2015","payTaxs":"-","evaluationOrg":"国家税务总局"},{"creditRating":"A","id":181,"compId":99577,"taxpayerCode":"610103220530273","overduTaxBalan":"-","overduTax":"-","reportYear":"2014","payTaxs":"-","evaluationOrg":"国家税务总局"}],"totalCount":3,"pageNo":1,"pageSize":5,"totalPage":1},"msg":"操作成功"}</TestCase>
	</method>
	<method name="comp_run_recruitinfo">
		<TestCase name='search'>"jobDesc":"职位描述</TestCase>
	</method>	
	<method name="comp_run_recruitinfodetail">
		<TestCase name='search'>{"sta":1,"data":{"compDesc":"上海北斗投资管理有限公司 该 上海北斗投资管理有限公司(目前注册资本1000万元，正在办理资本公积转增注册资本，预计到5000万)成立于2011年，提出安全理财、快乐理财和智慧理财三大理财方式。</TestCase>
	</method>		
	<method name="comp_run_infos">
		<TestCase name='court_notice'>
			"party":"成都金控融资租赁有限公司、自贡联合石油工程技术有限公司、成都博佑石油设备租赁有限公司、许冰佑、林学文"
		</TestCase>
		<TestCase name='executed'>
			{"sta":1,"data":{"holdCourtInfos":[],"executeds":[{"id":1,"filingTime":"2009-09-09","executeCourt":"北京市第一中级人民法院","name":"(2009)一中执字第01533号","executeObject":"0"}],"totalCount":1,"dishonestExecuteds":[],"courtNotices":[],"judgementDocs":[]},"msg":"操作成功"}
		</TestCase>
		<TestCase name='hold_court_info'>
			"party":"成都金控融资租赁有限公司、自贡联合石油工程技术有限公司、成都博佑石油设备租赁有限公司、许冰佑、林学文"
		</TestCase>
		<TestCase name='judgement_doc'>
			{"sta":1,"data":{"holdCourtInfos":[],"executeds":[],"totalCount":3,"dishonestExecuteds":[],"courtNotices":[],"judgementDocs":[{"id":2,"publishTime":"2016-12-06","caseId":"（2015）穗天法民一初字第2032号","executeCourt":"广州市天河区人民法院","caseRole":"被告 - 广州浩宸资产管理有限公司\n原告 - 李家明","caseName":"李家明与广州浩宸资产管理有限公司劳动争议2015民一初2032一审民事判决书"},{"id":4,"publishTime":"2015-09-18","caseId":"（2014）穗天法民一初字第507号","executeCourt":"广州市天河区人民法院","caseRole":"被告 - 李家明","caseName":"广州浩宸资产管理有限公司与李家明劳动争议一审民事判决书"},{"id":3,"publishTime":"2015-06-02","caseId":"（2015）穗中法民一终字第1450号","executeCourt":"广东省广州市中级人民法院","caseRole":"上诉人（原审原告） - 广州浩宸资产管理有限公司\n被上诉人（原审被告） - 李家明","caseName":"广州浩宸资产管理有限公司与李家明劳动争议二审民事判决书"}]},"msg":"操作成功"}
		</TestCase>	
	</method>	
	<method name="comp_run_investabroad">
		<TestCase name='search'>"objLegalRepresentative":"西安浐灞基金管理有限公司"</TestCase>
	</method>	
	<method name="comp_run_intinfos">
		<TestCase name='webiste'>"aprovTime":"2014-12-04","compWebsite":"www.siti.com.cn","compDomain":"siti.com.cn","licenseKey":"陕ICP备05001193号-1"}],"patents":[]},"msg":"操作成功"}</TestCase>
		<TestCase name='copyrights'>"regCode":"国作登字-2015-F-00191411","aprovTime":"2015-04-21","name":"SPRINGS CAPITAL+图形标识","sortCode":"美术"}],"cretificates":[],"softCopyrights":[],"trademarks":[]</TestCase>
		<TestCase name='certificate'>"productName":"北京市海淀区技术产权市场装修工程"</TestCase>
		<TestCase name='patent'>"abstract":"本实用新型涉及生产教学两用型数控机床，包括控制系统、接口、执行机构、传感器和机械本体，控制系统通过接口向执行机构发出指令，将电信号转换为机械或力学量，并由机械本体做出规定的运动，完成相应的加工；而传感器将数控机床内部状况信息及外部环境信息反馈到控制系统，以备控制系统作出正确的反应；其特征在于：所述的控制系统包括两个，即实际加工数控系统和仿真数控系统；它还包括双系统切换执行模块，通过切换执行模块在两个控制系统之间切换。本实用新型既可用于实际的生产加工，又可用于教学实习，能在两套系统间方便地切换。"</TestCase>
		<TestCase name='softcopyright'>{"abstract":"本实用新型涉及一种GSM汽车防盗监控系统，包括中控盒、翘板开关、控制主机、GPS模块、GSM模块、继电器组成，控制主机与中控盒相连，GPS模块和GSM模块分别连接在控制主机，翘板开关通过继电器和中控盒的开线连接，控制主机和继电器的控制管脚相连接。控制主机通过检测中控盒的开关信号，判断防盗器是否处于设防状态，如果汽车已设防就断开继电器，切断翘板开关和中控盒的联系，从而达到原车在设防的时候翘板开关弹起而不解防的目的。本实用新型具有操作简单、接线方便，真正实现了汽车远程化、智能化、网络化防盗。","id":18,"compId":122884,"appId":"CN201020610365.3","type":"实用新型","publishDate":"2011-07-20"},{"abstract":"1.外观设计产品名称：指纹密码锁。2.外观设计产品用途：指纹密码锁。3.外观设计设计要点：外观线条比较刚毅，轮廓鲜明，把手柄与面板接触的地方有一方形凸台，两边棱角呈大斜面状态。4.指定一幅最能表明设计要点的图片或者照片：使用状态参考图。"</TestCase>
		<TestCase name='trademark'>"regCode":"国作登字-2015-F-00191411","aprovTime":"2015-04-21","name":"SPRINGS CAPITAL+图形标识","sortCode":"美术"}],"cretificates":[],"softCopyrights":[],"trademarks":[]</TestCase>
	</method>
	<method name="comp_yearreport_years">
		<TestCase name='search'>{"sta":1,"data":{"result":[{"reportYear":"2016","reportYearVal":"2016企业年报"},{"reportYear":"2015","reportYearVal":"2015企业年报"},{"reportYear":"2014","reportYearVal":"2014企业年报"},{"reportYear":"2013","reportYearVal":"2013企业年报"}]</TestCase>
	</method>	
	<method name="comp_yearreport_baseinfo">
		<TestCase name='search'>{"sta":1,"data":{"mainRevenue":"企业选择不公示","tel":"15980811080","postCode":"361000","buyStock":"是","houseAddr":"厦门市思明区台南路77号汇金国际中心31层","totalAsset":"6958383058.880000 万元","netProfit":"企业选择不公示","allRevenue":"企业选择不公示","id":40647,"totalEquity":"企业选择不公示","operationState":"开业","email":"81009669@qq.com","employeeNum":"企业选择不公示","liabilites":"4083743272.510000 万元","stockTransfer":"-","totalTax":"企业选择不公示","registerNumber":"-","allProfit":"企业选择不公示"},"msg":"ok"}</TestCase>
	</method>	
	<method name="comp_yearreport_sponsor">
		<TestCase name='search'>"paid":"8000.000000万人民币","paidTime":"2005年9月12日","reportYear":"2016年度报告","paidMode":"货币","shareholder":"周少明","contribution":"8000.000000万人民币","contributionMode":"货币","contributionTime":"2005年9月12日"}</TestCase>
	</method>	
	<method name="comp_yearreport_investinfo">
		<TestCase name='search'>"investCompName":"浙江华明投资管理有限公司","regNo":"91330100MA27YKT36M"}</TestCase>
	</method>	
	<method name="comp_yearreport_stockchanges">
		<TestCase name='search'>{"sta":0,"msg":"reportYear----格式错误"}</TestCase>
	</method>	
	
	<method name="compassociationinfolllist">
		<TestCase name='comp'>{"sta":1,"data":{"fryjs":[],"tsxx":[{"id":4,"lableSource":"jjxh","objType":"comp","totalCount":"1","labelType":"提示信息","objId":124214,"labelName":"管理规模为零"},{"id":5,"lableSource":"jjxh","objType":"comp","totalCount":"1","labelType":"提示信息","objId":124214,"labelName":"登记一年以上管理规模为零"}],"cxxx":[{"id":6,"lableSource":"jjxh","objType":"comp","totalCount":"1","labelType":"诚信信息","objId":124214,"labelName":"其他诚信信息","labelValue":"其他诚信信息：1.管理人无管理基金规模"}]},"msg":"ok"}</TestCase>
	</method>	
	<method name="abnormaloperate">
		<TestCase name='test'>{"sta":1,"data":{"result":[{"addReason":"未按规定期限公示2015年度报告","removeTime":"2016-08-27","addDecision":"福田局","addTime":"2016-08-16"}],"totalCount":1,"pageNo":1,"pageSize":20,"totalPage":1},"msg":"ok"}</TestCase>
	</method>	
	<method name="adminsanction">
		<TestCase name='test'>{"sta":1,"data":{"result":[],"totalCount":0,"pageNo":1,"pageSize":20,"totalPage":0},"msg":"暂无相关数据"}</TestCase>
	</method>	
	<method name="lawexecdetail">
		<TestCase name='test'>{"sta":1,"data":{"compId":104179,"createTime":"2017-10-16 13:53:22.0","publishTime":"2017-07-24","dishonestBehavior":"有履行能力而拒不履行生效法律文书确定义务","code":"91440300311725025-0","executeCode":"(2017)京0102行审35号","legalPerson":"李建林","id":1,"obligation":"交纳罚金589662935.76元","filingTime":"2017-07-24","caseCode":"(2017)京0102执7860号","performance":"全部未履行","name":"深圳市中鑫富盈基金管理有限公司","executeCourt":"北京市西城区人民法院","province":"北京","verdictSubject":"北京市西城区人民法院"},"msg":"ok"}</TestCase>
	</method>	
	<method name="lawexecutedlist">
		<TestCase name='test'>"obligation":"交纳罚金589662935.76元"</TestCase>
		<TestCase name='noparam'>{"sta":1,"data":{"result":[],"totalCount":0,"pageNo":1,"pageSize":20,"totalPage":0},"msg":"暂无相关数据"}</TestCase>
	</method>	
	<method name="lawholdcourtinfodetail">
		<TestCase name='test'>{"sta":1,"data":[],"msg":"暂无相关数据"}</TestCase>
	</method>	
	<method name="lawholdcourtinfolist">
		<TestCase name='test'>"publishTime":"2017-07-24","reason":"股东资格确认纠纷","plaintiff":"中山市银凡股权投资中心（有限合伙）","defendant":"广东东方比逊基金管理有限公司,广东信实投资管理有限公司"}]</TestCase>
	</method>	
	<method name="lawcourtnoticelist">
		<TestCase name='test'>{"sta":1,"data":{"result":[{"id":1,"noticeDesc":"黄山市民洲纸业有限公司：本院受理原告山东金泽霖股权投资管理股份有限公司、苏州金丰益创业投资企业（有限合伙）诉被告宁阳圣泰纸业有限责任公司、郭继强、邹城市隆诚典当有限责任公司、黄山市民洲纸业有限公司合同纠纷一案已审理终结。现依法向你方公告送达（2016）鲁01民初1806号民事判决书。自公告之日起60日内来本院...","party":"黄山市民洲纸业有限公司","publishTme":"2017-02-28","sorts":"裁判文书"}],"totalCount":1,"pageNo":1,"pageSize":20,"totalPage":1},"msg":"ok"}</TestCase>
	</method>	
	<method name="lawjudgementdoclist">
		<TestCase name='test'>{"sta":1,"data":{"result":[{"id":2,"publishTime":"2016-12-06","caseId":"（2015）穗天法民一初字第2032号","executeCourt":"广州市天河区人民法院","caseRole":"被告 - 广州浩宸资产管理有限公司\n原告 - 李家明","caseName":"李家明与广州浩宸资产管理有限公司劳动争议2015民一初2032一审民事判决书"},{"id":4,"publishTime":"2015-09-18","caseId":"（2014）穗天法民一初字第507号","executeCourt":"广州市天河区人民法院","caseRole":"被告 - 李家明","caseName":"广州浩宸资产管理有限公司与李家明劳动争议一审民事判决书"},{"id":3,"publishTime":"2015-06-02","caseId":"（2015）穗中法民一终字第1450号","executeCourt":"广东省广州市中级人民法院","caseRole":"上诉人（原审原告） - 广州浩宸资产管理有限公司\n被上诉人（原审被告） - 李家明","caseName":"广州浩宸资产管理有限公司与李家明劳动争议二审民事判决书"}],"totalCount":3,"pageNo":1,"pageSize":20,"totalPage":1},"msg":"ok"}</TestCase>
	</method>	
	<method name="manadministrativesanctiondetail">
		<TestCase name='test'>"detailUrl":"http://www.csrc.gov.cn/pub/zjhpublic/G00306207/201304/t20130427_227708.htm?keywords=李威","keywords":"资产 资产重组 上市公司 上市公司并购","manId":0,"website":"中国证监协会"</TestCase>
	</method>	
	<method name="manadministrativesanctionlist">
		<TestCase name='test'>{"sta":1,"data":{"result":[],"totalCount":0,"pageNo":1,"pageSize":20,"totalPage":0},"msg":"暂无相关数据"}</TestCase>
	</method>	
	<method name="repadministrativesanctiondetail">
		<TestCase name='test'>{"sta":1,"data":[{"compFullName":"上海元优资产管理中心（有限合伙）"</TestCase>
	</method>	
	<method name="repadministrativesanctionlist">
		<TestCase name='test'>"title":"中国证监会行政处罚决定书</TestCase>
	</method>		
</TestSuite>